{
  "name": "Connection Supervisor",
  "version": "0.0.7",
  "slug": "connection-supervisor",
  "description": "Connection Supervisor for Hass.io",
  "arch": ["armhf", "armv7", "aarch64", "amd64", "i386"],
  "host_network": true,
  "hassio_api": true,
  "hassio_role": "manager",
  "privileged": ["NET_ADMIN"],
  "url": "https://gitlab.com/PeterVanco/connection-supervisor",
  "startup": "application",
  "boot": "auto",
  "ports": {
    "3000/tcp" : 3000
  },
  "map": ["config:rw", "ssl"],
  "options": {
    "reboot_command": {
      "ssh": false,
      "command": "curl -XPOST -H \"X-HASSIO-KEY: ${HASSIO_TOKEN}\" http://hassio/host/reboot"
    },
    "eth": {
      "static_ip": "192.168.1.199"
    },
    "vpn": {
      "host_ip": "10.8.0.1",
      "static_ip": "10.8.0.10",
      "restart_command": {
        "ssh": false,
        "command": "curl -XPOST -H \"X-HASSIO-KEY: ${HASSIO_TOKEN}\" http://hassio/addons/local_openvpn-client/restart"
      }
    }
  },
  "schema": false
}